^D:\2 CURS 2 SEM\FINIAK.UNIVERSITY.TWITTER\TRESOR\TRESOR\X64\DEBUG\.NETCOREAPP,VERSION=V8.0.ASSEMBLYATTRIBUTES.OBJ|D:\2 CURS 2 SEM\FINIAK.UNIVERSITY.TWITTER\TRESOR\TRESOR\X64\DEBUG\SOURCE.OBJ
/OUT:"D:\2 CURS 2 SEM\FINIAK.UNIVERSITY.TWITTER\TRESOR\X64\DEBUG\TRESOR.DLL" /INCREMENTAL /ILK:"X64\DEBUG\TRESOR.ILK" /NOLOGO /LIBPATH:"C:\PROGRAM FILES\DOTNET\PACKS\MICROSOFT.NETCORE.APP.HOST.WIN-X64\8.0.2\RUNTIMES\WIN-X64\NATIVE" /MANIFEST /MANIFESTUAC:"level='asInvoker' uiAccess='false'" /manifest:embed /DEBUG:FULL /PDB:"D:\2 CURS 2 SEM\FINIAK.UNIVERSITY.TWITTER\TRESOR\X64\DEBUG\TRESOR.PDB" /ASSEMBLYDEBUG /TLBID:1 /DYNAMICBASE /FIXED:NO /NXCOMPAT /MACHINE:X64  /sourcelink:"x64\Debug\Tresor.sourcelink.json" /DLL X64\DEBUG\SOURCE.OBJ
"X64\DEBUG\.NETCOREAPP,VERSION=V8.0.ASSEMBLYATTRIBUTES.OBJ"
